{
  "version": "2.0",
  "licenses": [
    {
      "id": "bsd",
      "name": "BSD",
      "url": "http://en.wikipedia.org/wiki/BSD_licenses",
      "count": 4
    },
    {
      "id": "MIT",
      "name": "MIT License",
      "url": "https://opensource.org/licenses/MIT",
      "count": 4
    },
    {
      "id": "BSD-3-Clause",
      "name": "BSD 3-Clause \"New\" or \"Revised\" License",
      "url": "https://opensource.org/licenses/BSD-3-Clause",
      "count": 1
    },
    {
      "id": "MIT-CMU",
      "name": "CMU License",
      "url": "https://github.com/python-pillow/Pillow/blob/fffb426092c8db24a5f4b6df243a8a3c01fb63cd/LICENSE",
      "count": 1
    },
    {
      "id": "copyright (c) 2015, julien fache",
      "name": "Copyright (c) 2015, Julien Fache",
      "url": "",
      "count": 1
    },
    {
      "id": "Python-2.0",
      "name": "Python License 2.0",
      "url": "https://opensource.org/licenses/Python-2.0",
      "count": 1
    }
  ],
  "dependencies": [
    {
      "name": "Django",
      "url": "https://www.djangoproject.com/",
      "description": "A high-level Python Web framework that encourages rapid development and clean, pragmatic design.",
      "paths": [
        "."
      ],
      "licenses": [
        "bsd"
      ]
    },
    {
      "name": "Pillow",
      "url": "https://python-pillow.org",
      "description": "Python Imaging Library (Fork)",
      "paths": [
        "."
      ],
      "licenses": [
        "MIT-CMU"
      ]
    },
    {
      "name": "beautifulsoup4",
      "url": "http://www.crummy.com/software/BeautifulSoup/bs4/",
      "description": "Screen-scraping library",
      "paths": [
        "."
      ],
      "licenses": [
        "MIT"
      ]
    },
    {
      "name": "django-contrib-comments",
      "url": "https://github.com/django/django-contrib-comments",
      "description": "The code formerly known as django.contrib.comments.",
      "paths": [
        "."
      ],
      "licenses": [
        "bsd"
      ]
    },
    {
      "name": "django-js-asset",
      "url": "https://github.com/matthiask/django-js-asset/",
      "description": "script tag with additional attributes for django.forms.Media",
      "paths": [
        "."
      ],
      "licenses": [
        "bsd"
      ]
    },
    {
      "name": "django-mptt",
      "url": "http://github.com/django-mptt/django-mptt",
      "description": "Utilities for implementing Modified Preorder Tree Traversal with your Django Models and working with trees of Model instances.",
      "paths": [
        "."
      ],
      "licenses": [
        "MIT"
      ]
    },
    {
      "name": "django-tagging",
      "url": "https://github.com/Fantomas42/django-tagging",
      "description": "Generic tagging application for Django",
      "paths": [
        "."
      ],
      "licenses": [
        "bsd"
      ]
    },
    {
      "name": "django-xmlrpc",
      "url": "https://github.com/Fantomas42/django-xmlrpc",
      "description": "XML-RPC Server App for the Django framework.",
      "paths": [
        "."
      ],
      "licenses": [
        "BSD-3-Clause"
      ]
    },
    {
      "name": "mots-vides",
      "url": "https://github.com/Fantomas42/mots-vides",
      "description": "Python library for managing stop words in many languages.",
      "paths": [
        "."
      ],
      "licenses": [
        "copyright (c) 2015, julien fache"
      ]
    },
    {
      "name": "pyparsing",
      "url": "http://pyparsing.wikispaces.com/",
      "description": "Python parsing module",
      "paths": [
        "."
      ],
      "licenses": [
        "MIT"
      ]
    },
    {
      "name": "pytz",
      "url": "http://pythonhosted.org/pytz",
      "description": "World timezone definitions, modern and historical",
      "paths": [
        "."
      ],
      "licenses": [
        "MIT"
      ]
    },
    {
      "name": "regex",
      "url": "https://bitbucket.org/mrabarnett/mrab-regex",
      "description": "Alternative regular expression module, to replace re.",
      "paths": [
        "."
      ],
      "licenses": [
        "Python-2.0"
      ]
    }
  ]
}