{
  "licenses": [
    {
      "count": 6,
      "name": "MIT, Apache 2.0"
    },
    {
      "count": 1,
      "name": "Unlicense, MIT"
    }
  ],
  "dependencies": [
    {
      "license": {
        "name": "Unlicense, MIT",
        "url": "http://opensource.org/licenses/mit-license"
      },
      "dependency": {
        "name": "byteorder",
        "description": "",
        "pathes": [
          "."
        ]
      }
    },
    {
      "license": {
        "name": "MIT, Apache 2.0",
        "url": "http://opensource.org/licenses/mit-license"
      },
      "dependency": {
        "name": "diesel",
        "description": "",
        "pathes": [
          "."
        ]
      }
    },
    {
      "license": {
        "name": "MIT, Apache 2.0",
        "url": "http://opensource.org/licenses/mit-license"
      },
      "dependency": {
        "name": "diesel_derives",
        "description": "",
        "pathes": [
          "."
        ]
      }
    },
    {
      "license": {
        "name": "MIT, Apache 2.0",
        "url": "http://opensource.org/licenses/mit-license"
      },
      "dependency": {
        "name": "proc-macro2",
        "description": "",
        "pathes": [
          "."
        ]
      }
    },
    {
      "license": {
        "name": "MIT, Apache 2.0",
        "url": "http://opensource.org/licenses/mit-license"
      },
      "dependency": {
        "name": "quote",
        "description": "",
        "pathes": [
          "."
        ]
      }
    },
    {
      "license": {
        "name": "MIT, Apache 2.0",
        "url": "http://opensource.org/licenses/mit-license"
      },
      "dependency": {
        "name": "syn",
        "description": "",
        "pathes": [
          "."
        ]
      }
    },
    {
      "license": {
        "name": "MIT, Apache 2.0",
        "url": "http://opensource.org/licenses/mit-license"
      },
      "dependency": {
        "name": "unicode-xid",
        "description": "",
        "pathes": [
          "."
        ]
      }
    }
  ]
}