{
  "version": "1.1",
  "licenses": [
    {
      "count": 19,
      "name": "Apache 2.0"
    },
    {
      "count": 2,
      "name": "CDDL + GPLv2 with classpath exception"
    },
    {
      "count": 2,
      "name": "MIT"
    },
    {
      "count": 1,
      "name": "BSD"
    },
    {
      "count": 1,
      "name": "LGPL, version 2.1, ASL, version 2"
    },
    {
      "count": 1,
      "name": "Mozilla Public License 2.0"
    }
  ],
  "dependencies": [
    {
      "licenses": [
        {
          "name": "BSD",
          "url": "http://en.wikipedia.org/wiki/BSD_licenses#4-clause_license_.28original_.22BSD_License.22.29"
        }
      ],
      "license": {
        "name": "BSD",
        "url": "http://en.wikipedia.org/wiki/BSD_licenses#4-clause_license_.28original_.22BSD_License.22.29"
      },
      "dependency": {
        "name": "antlr",
        "description": "",
        "pathes": [
          "."
        ]
      }
    },
    {
      "licenses": [
        {
          "name": "Apache 2.0",
          "url": "http://www.apache.org/licenses/LICENSE-2.0.txt"
        }
      ],
      "license": {
        "name": "Apache 2.0",
        "url": "http://www.apache.org/licenses/LICENSE-2.0.txt"
      },
      "dependency": {
        "name": "commons-beanutils",
        "description": "",
        "pathes": [
          "."
        ]
      }
    },
    {
      "licenses": [
        {
          "name": "Apache 2.0",
          "url": "http://www.apache.org/licenses/LICENSE-2.0.txt"
        }
      ],
      "license": {
        "name": "Apache 2.0",
        "url": "http://www.apache.org/licenses/LICENSE-2.0.txt"
      },
      "dependency": {
        "name": "commons-io",
        "description": "",
        "pathes": [
          "."
        ]
      }
    },
    {
      "licenses": [
        {
          "name": "Apache 2.0",
          "url": "http://www.apache.org/licenses/LICENSE-2.0.txt"
        }
      ],
      "license": {
        "name": "Apache 2.0",
        "url": "http://www.apache.org/licenses/LICENSE-2.0.txt"
      },
      "dependency": {
        "name": "commons-lang",
        "description": "",
        "pathes": [
          "."
        ]
      }
    },
    {
      "licenses": [
        {
          "name": "Apache 2.0",
          "url": "http://www.apache.org/licenses/LICENSE-2.0.txt"
        }
      ],
      "license": {
        "name": "Apache 2.0",
        "url": "http://www.apache.org/licenses/LICENSE-2.0.txt"
      },
      "dependency": {
        "name": "commons-lang3",
        "description": "",
        "pathes": [
          "."
        ]
      }
    },
    {
      "licenses": [
        {
          "name": "Apache 2.0",
          "url": "http://www.apache.org/licenses/LICENSE-2.0.txt"
        }
      ],
      "license": {
        "name": "Apache 2.0",
        "url": "http://www.apache.org/licenses/LICENSE-2.0.txt"
      },
      "dependency": {
        "name": "fastutil",
        "description": "",
        "pathes": [
          "."
        ]
      }
    },
    {
      "licenses": [
        {
          "name": "Apache 2.0",
          "url": "http://www.apache.org/licenses/LICENSE-2.0.txt"
        }
      ],
      "license": {
        "name": "Apache 2.0",
        "url": "http://www.apache.org/licenses/LICENSE-2.0.txt"
      },
      "dependency": {
        "name": "findbugs-annotations",
        "description": "",
        "pathes": [
          "."
        ]
      }
    },
    {
      "licenses": [
        {
          "name": "Apache 2.0",
          "url": "http://www.apache.org/licenses/LICENSE-2.0.txt"
        }
      ],
      "license": {
        "name": "Apache 2.0",
        "url": "http://www.apache.org/licenses/LICENSE-2.0.txt"
      },
      "dependency": {
        "name": "geode-common",
        "description": "",
        "pathes": [
          "."
        ]
      }
    },
    {
      "licenses": [
        {
          "name": "Apache 2.0",
          "url": "http://www.apache.org/licenses/LICENSE-2.0.txt"
        }
      ],
      "license": {
        "name": "Apache 2.0",
        "url": "http://www.apache.org/licenses/LICENSE-2.0.txt"
      },
      "dependency": {
        "name": "geode-core",
        "description": "",
        "pathes": [
          "."
        ]
      }
    },
    {
      "licenses": [
        {
          "name": "Apache 2.0",
          "url": "http://www.apache.org/licenses/LICENSE-2.0.txt"
        }
      ],
      "license": {
        "name": "Apache 2.0",
        "url": "http://www.apache.org/licenses/LICENSE-2.0.txt"
      },
      "dependency": {
        "name": "geode-json",
        "description": "",
        "pathes": [
          "."
        ]
      }
    },
    {
      "licenses": [
        {
          "name": "Apache 2.0",
          "url": "http://www.apache.org/licenses/LICENSE-2.0.txt"
        }
      ],
      "license": {
        "name": "Apache 2.0",
        "url": "http://www.apache.org/licenses/LICENSE-2.0.txt"
      },
      "dependency": {
        "name": "jackson-annotations",
        "description": "",
        "pathes": [
          "."
        ]
      }
    },
    {
      "licenses": [
        {
          "name": "Apache 2.0",
          "url": "http://www.apache.org/licenses/LICENSE-2.0.txt"
        }
      ],
      "license": {
        "name": "Apache 2.0",
        "url": "http://www.apache.org/licenses/LICENSE-2.0.txt"
      },
      "dependency": {
        "name": "jackson-core",
        "description": "",
        "pathes": [
          "."
        ]
      }
    },
    {
      "licenses": [
        {
          "name": "Apache 2.0",
          "url": "http://www.apache.org/licenses/LICENSE-2.0.txt"
        }
      ],
      "license": {
        "name": "Apache 2.0",
        "url": "http://www.apache.org/licenses/LICENSE-2.0.txt"
      },
      "dependency": {
        "name": "jackson-databind",
        "description": "",
        "pathes": [
          "."
        ]
      }
    },
    {
      "licenses": [
        {
          "name": "CDDL + GPLv2 with classpath exception",
          "url": ""
        }
      ],
      "license": {
        "name": "CDDL + GPLv2 with classpath exception"
      },
      "dependency": {
        "name": "javax.resource-api",
        "description": "",
        "pathes": [
          "."
        ]
      }
    },
    {
      "licenses": [
        {
          "name": "CDDL + GPLv2 with classpath exception",
          "url": ""
        }
      ],
      "license": {
        "name": "CDDL + GPLv2 with classpath exception"
      },
      "dependency": {
        "name": "javax.transaction-api",
        "description": "",
        "pathes": [
          "."
        ]
      }
    },
    {
      "licenses": [
        {
          "name": "Apache 2.0",
          "url": "http://www.apache.org/licenses/LICENSE-2.0.txt"
        }
      ],
      "license": {
        "name": "Apache 2.0",
        "url": "http://www.apache.org/licenses/LICENSE-2.0.txt"
      },
      "dependency": {
        "name": "jgroups",
        "description": "",
        "pathes": [
          "."
        ]
      }
    },
    {
      "licenses": [
        {
          "name": "ASL, version 2",
          "url": ""
        },
        {
          "name": "LGPL, version 2.1",
          "url": ""
        }
      ],
      "license": {
        "name": "LGPL, version 2.1, ASL, version 2"
      },
      "dependency": {
        "name": "jna",
        "description": "",
        "pathes": [
          "."
        ]
      }
    },
    {
      "licenses": [
        {
          "name": "MIT",
          "url": "http://opensource.org/licenses/mit-license"
        }
      ],
      "license": {
        "name": "MIT",
        "url": "http://opensource.org/licenses/mit-license"
      },
      "dependency": {
        "name": "jopt-simple",
        "description": "",
        "pathes": [
          "."
        ]
      }
    },
    {
      "licenses": [
        {
          "name": "Apache 2.0",
          "url": "http://www.apache.org/licenses/LICENSE-2.0.txt"
        }
      ],
      "license": {
        "name": "Apache 2.0",
        "url": "http://www.apache.org/licenses/LICENSE-2.0.txt"
      },
      "dependency": {
        "name": "log4j-api",
        "description": "",
        "pathes": [
          "."
        ]
      }
    },
    {
      "licenses": [
        {
          "name": "Apache 2.0",
          "url": "http://www.apache.org/licenses/LICENSE-2.0.txt"
        }
      ],
      "license": {
        "name": "Apache 2.0",
        "url": "http://www.apache.org/licenses/LICENSE-2.0.txt"
      },
      "dependency": {
        "name": "log4j-core",
        "description": "",
        "pathes": [
          "."
        ]
      }
    },
    {
      "licenses": [
        {
          "name": "Apache 2.0",
          "url": "http://www.apache.org/licenses/LICENSE-2.0.txt"
        }
      ],
      "license": {
        "name": "Apache 2.0",
        "url": "http://www.apache.org/licenses/LICENSE-2.0.txt"
      },
      "dependency": {
        "name": "maven-artifact",
        "description": "",
        "pathes": [
          "."
        ]
      }
    },
    {
      "licenses": [
        {
          "name": "Apache 2.0",
          "url": "http://www.apache.org/licenses/LICENSE-2.0.txt"
        }
      ],
      "license": {
        "name": "Apache 2.0",
        "url": "http://www.apache.org/licenses/LICENSE-2.0.txt"
      },
      "dependency": {
        "name": "netty",
        "description": "",
        "pathes": [
          "."
        ]
      }
    },
    {
      "licenses": [
        {
          "name": "Apache 2.0",
          "url": "http://www.apache.org/licenses/LICENSE-2.0.txt"
        }
      ],
      "license": {
        "name": "Apache 2.0",
        "url": "http://www.apache.org/licenses/LICENSE-2.0.txt"
      },
      "dependency": {
        "name": "plexus-utils",
        "description": "",
        "pathes": [
          "."
        ]
      }
    },
    {
      "licenses": [
        {
          "name": "Mozilla Public License 2.0",
          "url": "https://www.mozilla.org/media/MPL/2.0/index.815ca599c9df.txt"
        }
      ],
      "license": {
        "name": "Mozilla Public License 2.0",
        "url": "https://www.mozilla.org/media/MPL/2.0/index.815ca599c9df.txt"
      },
      "dependency": {
        "name": "rhino",
        "description": "",
        "pathes": [
          "."
        ]
      }
    },
    {
      "licenses": [
        {
          "name": "Apache 2.0",
          "url": "http://www.apache.org/licenses/LICENSE-2.0.txt"
        }
      ],
      "license": {
        "name": "Apache 2.0",
        "url": "http://www.apache.org/licenses/LICENSE-2.0.txt"
      },
      "dependency": {
        "name": "shiro-core",
        "description": "",
        "pathes": [
          "."
        ]
      }
    },
    {
      "licenses": [
        {
          "name": "MIT",
          "url": "http://opensource.org/licenses/mit-license"
        }
      ],
      "license": {
        "name": "MIT",
        "url": "http://opensource.org/licenses/mit-license"
      },
      "dependency": {
        "name": "slf4j-api",
        "description": "",
        "pathes": [
          "."
        ]
      }
    }
  ]
}
